Library\Bee\artifacts\movedfrom\Unity.2D.Sprite.Editor.ref.dll_5278218699841818018.movedfrom
Library\Bee\artifacts\movedfrom\Unity.Mathematics.Editor.ref.dll_7247500635434115581.movedfrom
Library\Bee\artifacts\movedfrom\Unity.Mathematics.ref.dll_11190590120249651444.movedfrom
Library\Bee\artifacts\movedfrom\Unity.PlasticSCM.Editor.ref.dll_11199776351449517116.movedfrom
Library\Bee\artifacts\movedfrom\Unity.ProBuilder.AddOns.Editor.ref.dll_15678700530705918496.movedfrom
Library\Bee\artifacts\movedfrom\Unity.ProBuilder.AssetIdRemapUtility.ref.dll_707718787351422422.movedfrom
Library\Bee\artifacts\movedfrom\Unity.ProBuilder.Editor.ref.dll_6458671501271432795.movedfrom
Library\Bee\artifacts\movedfrom\Unity.ProBuilder.ref.dll_17258066356426450614.movedfrom
Library\Bee\artifacts\movedfrom\Unity.ProGrids.Editor.ref.dll_6882222161820853577.movedfrom
Library\Bee\artifacts\movedfrom\Unity.ProGrids.ref.dll_15934768293785364712.movedfrom
Library\Bee\artifacts\movedfrom\Unity.RenderPipeline.Universal.ShaderLibrary.ref.dll_16305208182037891269.movedfrom
Library\Bee\artifacts\movedfrom\Unity.RenderPipelines.Core.Editor.ref.dll_15915602839651973431.movedfrom
Library\Bee\artifacts\movedfrom\Unity.RenderPipelines.Core.Runtime.ref.dll_14929694160013338116.movedfrom
Library\Bee\artifacts\movedfrom\Unity.RenderPipelines.Core.ShaderLibrary.ref.dll_16400345218075021778.movedfrom
Library\Bee\artifacts\movedfrom\Unity.RenderPipelines.ShaderGraph.ShaderGraphLibrary.ref.dll_10044960190513592146.movedfrom
Library\Bee\artifacts\movedfrom\Unity.RenderPipelines.Universal.Editor.ref.dll_18056722785930493995.movedfrom
Library\Bee\artifacts\movedfrom\Unity.RenderPipelines.Universal.Runtime.ref.dll_17176711275279705552.movedfrom
Library\Bee\artifacts\movedfrom\Unity.RenderPipelines.Universal.Shaders.ref.dll_3370943424829915398.movedfrom
Library\Bee\artifacts\movedfrom\Unity.Rider.Editor.ref.dll_13504095488706181289.movedfrom
Library\Bee\artifacts\movedfrom\Unity.Searcher.Editor.ref.dll_793200237144035636.movedfrom
Library\Bee\artifacts\movedfrom\Unity.ShaderGraph.Editor.ref.dll_15691544691995692170.movedfrom
Library\Bee\artifacts\movedfrom\Unity.TextMeshPro.Editor.ref.dll_16145828761010949696.movedfrom
Library\Bee\artifacts\movedfrom\Unity.TextMeshPro.ref.dll_3963524526975704193.movedfrom
Library\Bee\artifacts\movedfrom\Unity.Timeline.Editor.ref.dll_398390432579291448.movedfrom
Library\Bee\artifacts\movedfrom\Unity.Timeline.ref.dll_15223985216870437385.movedfrom
Library\Bee\artifacts\movedfrom\Unity.VSCode.Editor.ref.dll_14923211856240080511.movedfrom
Library\Bee\artifacts\movedfrom\Unity.VisualScripting.Core.Editor.ref.dll_9492569984618642851.movedfrom
Library\Bee\artifacts\movedfrom\Unity.VisualScripting.Core.ref.dll_16893525527300936430.movedfrom
Library\Bee\artifacts\movedfrom\Unity.VisualScripting.Flow.Editor.ref.dll_66791803098581220.movedfrom
Library\Bee\artifacts\movedfrom\Unity.VisualScripting.Flow.ref.dll_3567620892065105821.movedfrom
Library\Bee\artifacts\movedfrom\Unity.VisualScripting.State.Editor.ref.dll_16212681420528482921.movedfrom
Library\Bee\artifacts\movedfrom\Unity.VisualScripting.State.ref.dll_2691721288712667592.movedfrom
Library\Bee\artifacts\movedfrom\Unity.VisualStudio.Editor.ref.dll_9114673165249827155.movedfrom
Library\Bee\artifacts\movedfrom\UnityEditor.UI.ref.dll_13673610038203402095.movedfrom
Library\Bee\artifacts\movedfrom\UnityEngine.UI.ref.dll_8802358302705348570.movedfrom
Library\Bee\artifacts\movedfrom\UnityEditor.CoreModule.dll_17339037763553189681.movedfrom
Library\Bee\artifacts\movedfrom\UnityEditor.DeviceSimulatorModule.dll_8349145585079454816.movedfrom
Library\Bee\artifacts\movedfrom\UnityEditor.dll_1915758850826257300.movedfrom
Library\Bee\artifacts\movedfrom\UnityEditor.GraphViewModule.dll_18203209199212347589.movedfrom
Library\Bee\artifacts\movedfrom\UnityEditor.PackageManagerUIModule.dll_10124658701556353357.movedfrom
Library\Bee\artifacts\movedfrom\UnityEditor.QuickSearchModule.dll_14646351747722486535.movedfrom
Library\Bee\artifacts\movedfrom\UnityEditor.SceneTemplateModule.dll_14346368702605269096.movedfrom
Library\Bee\artifacts\movedfrom\UnityEditor.UIBuilderModule.dll_5847773959216773625.movedfrom
Library\Bee\artifacts\movedfrom\UnityEditor.UIElementsModule.dll_5178786022308002509.movedfrom
Library\Bee\artifacts\movedfrom\UnityEditor.UIElementsSamplesModule.dll_4841643318745100912.movedfrom
Library\Bee\artifacts\movedfrom\UnityEditor.UIServiceModule.dll_9951135286221900307.movedfrom
Library\Bee\artifacts\movedfrom\UnityEditor.UnityConnectModule.dll_14925073679147017831.movedfrom
Library\Bee\artifacts\movedfrom\UnityEngine.AccessibilityModule.dll_17995810071950901253.movedfrom
Library\Bee\artifacts\movedfrom\UnityEngine.AIModule.dll_8943403220893577573.movedfrom
Library\Bee\artifacts\movedfrom\UnityEngine.AndroidJNIModule.dll_14278565063572629923.movedfrom
Library\Bee\artifacts\movedfrom\UnityEngine.AnimationModule.dll_14637902184122520939.movedfrom
Library\Bee\artifacts\movedfrom\UnityEngine.AssetBundleModule.dll_1093106156447094777.movedfrom
Library\Bee\artifacts\movedfrom\UnityEngine.AudioModule.dll_2036148159627600797.movedfrom
Library\Bee\artifacts\movedfrom\UnityEngine.ClothModule.dll_9451427178564027009.movedfrom
Library\Bee\artifacts\movedfrom\UnityEngine.CoreModule.dll_1423549032385563228.movedfrom
Library\Bee\artifacts\movedfrom\UnityEngine.CrashReportingModule.dll_16655898397810356084.movedfrom
Library\Bee\artifacts\movedfrom\UnityEngine.DirectorModule.dll_7337896297419853689.movedfrom
Library\Bee\artifacts\movedfrom\UnityEngine.dll_5564878344014712953.movedfrom
Library\Bee\artifacts\movedfrom\UnityEngine.DSPGraphModule.dll_7721090846241464474.movedfrom
Library\Bee\artifacts\movedfrom\UnityEngine.GameCenterModule.dll_17326739065228073620.movedfrom
Library\Bee\artifacts\movedfrom\UnityEngine.GIModule.dll_1466382262347045247.movedfrom
Library\Bee\artifacts\movedfrom\UnityEngine.GridModule.dll_17380114696560304211.movedfrom
Library\Bee\artifacts\movedfrom\UnityEngine.HotReloadModule.dll_5507062871990513901.movedfrom
Library\Bee\artifacts\movedfrom\UnityEngine.ImageConversionModule.dll_16536338009710023128.movedfrom
Library\Bee\artifacts\movedfrom\UnityEngine.IMGUIModule.dll_6098288812299695998.movedfrom
Library\Bee\artifacts\movedfrom\UnityEngine.InputLegacyModule.dll_11560908883551849962.movedfrom
Library\Bee\artifacts\movedfrom\UnityEngine.InputModule.dll_9419174884482959425.movedfrom
Library\Bee\artifacts\movedfrom\UnityEngine.JSONSerializeModule.dll_6473219841124933775.movedfrom
Library\Bee\artifacts\movedfrom\UnityEngine.LocalizationModule.dll_10162868265313561638.movedfrom
Library\Bee\artifacts\movedfrom\UnityEngine.ParticleSystemModule.dll_4195081771442600706.movedfrom
Library\Bee\artifacts\movedfrom\UnityEngine.PerformanceReportingModule.dll_12002422695602043675.movedfrom
Library\Bee\artifacts\movedfrom\UnityEngine.Physics2DModule.dll_1714242445224873216.movedfrom
Library\Bee\artifacts\movedfrom\UnityEngine.PhysicsModule.dll_9187886722992903182.movedfrom
Library\Bee\artifacts\movedfrom\UnityEngine.ProfilerModule.dll_10960542154349794950.movedfrom
Library\Bee\artifacts\movedfrom\UnityEngine.RuntimeInitializeOnLoadManagerInitializerModule.dll_15297679711077268937.movedfrom
Library\Bee\artifacts\movedfrom\UnityEngine.ScreenCaptureModule.dll_8339871198778182897.movedfrom
Library\Bee\artifacts\movedfrom\UnityEngine.SharedInternalsModule.dll_7606050510159498536.movedfrom
Library\Bee\artifacts\movedfrom\UnityEngine.SpriteMaskModule.dll_15681925264692817934.movedfrom
Library\Bee\artifacts\movedfrom\UnityEngine.SpriteShapeModule.dll_2921898947753840643.movedfrom
Library\Bee\artifacts\movedfrom\UnityEngine.StreamingModule.dll_9203444262980635817.movedfrom
Library\Bee\artifacts\movedfrom\UnityEngine.SubstanceModule.dll_6657525403661650615.movedfrom
Library\Bee\artifacts\movedfrom\UnityEngine.SubsystemsModule.dll_4922093900233250849.movedfrom
Library\Bee\artifacts\movedfrom\UnityEngine.TerrainModule.dll_11081223132311411964.movedfrom
Library\Bee\artifacts\movedfrom\UnityEngine.TerrainPhysicsModule.dll_4229607343216686479.movedfrom
Library\Bee\artifacts\movedfrom\UnityEngine.TextCoreModule.dll_18343237940998291337.movedfrom
Library\Bee\artifacts\movedfrom\UnityEngine.TextRenderingModule.dll_11312090868215106790.movedfrom
Library\Bee\artifacts\movedfrom\UnityEngine.TilemapModule.dll_4090624414872256005.movedfrom
Library\Bee\artifacts\movedfrom\UnityEngine.TLSModule.dll_7413752118957224290.movedfrom
Library\Bee\artifacts\movedfrom\UnityEngine.UIElementsModule.dll_5227882824298746904.movedfrom
Library\Bee\artifacts\movedfrom\UnityEngine.UIElementsNativeModule.dll_15491177686491855215.movedfrom
Library\Bee\artifacts\movedfrom\UnityEngine.UIModule.dll_8615658790684538641.movedfrom
Library\Bee\artifacts\movedfrom\UnityEngine.UmbraModule.dll_10887036548764782352.movedfrom
Library\Bee\artifacts\movedfrom\UnityEngine.UNETModule.dll_11990761675402788821.movedfrom
Library\Bee\artifacts\movedfrom\UnityEngine.UnityAnalyticsModule.dll_6473745719394356478.movedfrom
Library\Bee\artifacts\movedfrom\UnityEngine.UnityConnectModule.dll_13582864715081525010.movedfrom
Library\Bee\artifacts\movedfrom\UnityEngine.UnityCurlModule.dll_18320898013110568792.movedfrom
Library\Bee\artifacts\movedfrom\UnityEngine.UnityTestProtocolModule.dll_18371219601815848902.movedfrom
Library\Bee\artifacts\movedfrom\UnityEngine.UnityWebRequestAssetBundleModule.dll_12530086833603706447.movedfrom
Library\Bee\artifacts\movedfrom\UnityEngine.UnityWebRequestAudioModule.dll_2201556221739992499.movedfrom
Library\Bee\artifacts\movedfrom\UnityEngine.UnityWebRequestModule.dll_17806080056561429591.movedfrom
Library\Bee\artifacts\movedfrom\UnityEngine.UnityWebRequestTextureModule.dll_5240738091734573032.movedfrom
Library\Bee\artifacts\movedfrom\UnityEngine.UnityWebRequestWWWModule.dll_1457930891795446244.movedfrom
Library\Bee\artifacts\movedfrom\UnityEngine.VehiclesModule.dll_15967630459320868628.movedfrom
Library\Bee\artifacts\movedfrom\UnityEngine.VFXModule.dll_16699779202453084879.movedfrom
Library\Bee\artifacts\movedfrom\UnityEngine.VideoModule.dll_4704958007887085378.movedfrom
Library\Bee\artifacts\movedfrom\UnityEngine.VRModule.dll_14583533602289728649.movedfrom
Library\Bee\artifacts\movedfrom\UnityEngine.WindModule.dll_9948541144325933253.movedfrom
Library\Bee\artifacts\movedfrom\UnityEngine.XRModule.dll_18240107974010735079.movedfrom
Library\Bee\artifacts\movedfrom\UnityEngine.WebGLModule.dll_1890596005733986272.movedfrom
Library\Bee\artifacts\movedfrom\Unity.VisualScripting.Antlr3.Runtime.dll_16338216748677817660.movedfrom